Project Exploratory Data Analysis
…
setwd("C:/Users/micsm/OneDrive/Documents/MSDS2/STAT 615/Project")
load("./Data/HSLS_Data.rdata")

Investigate Response and Predictor Variables

Major considering upon postsecondary entry

HSLS_Data |>
  group_by(X4ENTRYMAJ23) |>
  count() |>
  arrange(desc(n))

# A tibble: 26 × 2
# Groups:   X4ENTRYMAJ23 [26]
   X4ENTRYMAJ23                                      n
   <fct>                                         <int>
 1 Unit non-response                              6168
 2 Item legitimate skip/NA                        4281
 3 Health care fields                             2266
 4 Business                                       1728
 5 Biological and physical science, science tech  1347
 6 Engineering and engineering technology         1166
 7 Education                                       760
 8 Undeclared/undecided                            695
 9 Humanities                                      643
10 Psychology                                      535
# ℹ 16 more rows

HSLS_Data |>
  group_by(X5GPAALL) |>
  count() |>
  arrange(X5GPAALL)

# A tibble: 44 × 2
# Groups:   X5GPAALL [44]
   X5GPAALL     n
      <dbl> <int>
 1     -9     345
 2     -8    4178
 3     -7     227
 4     -6    6165
 5      0     343
 6      0.2    61
 7      0.3    41
 8      0.4    48
 9      0.5    66
10      0.6    65
# ℹ 34 more rows
…
Positive association for all majors.

Job Wanted in the Base Year

This variable provides information on what job students wanted or expected they’d have when they were 30 years old. This was recorded in the base year of the survey, when the students were in 9th grade.

HSLS_Data |>
  group_by(X1STU30OCC2) |>
  count() |>
  arrange(desc(n))

# A tibble: 25 × 2
# Groups:   X1STU30OCC2 [25]
   X1STU30OCC2                                                    n
   <fct>                                                      <int>
 1 Don't know                                                  6056
 2 Healthcare Practitioners and Technical Occupations          4348
 3 Arts, Design, Entertainment, Sports, and Media Occupations  2610
 4 Unit non-response                                           2059
 5 Life, Physical, and Social Science Occupations              1055
 6 Architecture and Engineering Occupations                    1035
 7 Legal Occupations                                            821
 8 Education, Training, and Library Occupations                 770
 9 Protective Service Occupations                               597
10 Military Specific Occupations                                576
# ℹ 15 more rows
…
Residual standard error: 0.7298 on 9124 degrees of freedom
Multiple R-squared:  0.3434,    Adjusted R-squared:  0.3413 
F-statistic: 159.1 on 30 and 9124 DF,  p-value: < 2.2e-16

SLR of College GPA on School Engagement

HSLS_Data |>
  group_by(X1SCHOOLENG) |>
  count() |>
  arrange(desc(n))

# A tibble: 195 × 2
# Groups:   X1SCHOOLENG [195]
   X1SCHOOLENG     n
         <dbl> <int>
 1        1.39  2177
 2       -8     2059
 3        1.01  1886
 4        0.71  1435
 5       -0.2   1195
 6        0.59   586
 7        1.09   584
 8        0.1    554
 9       -0.58   550
10       -9      542
# ℹ 185 more rows
…
